A modeler's primer for working with SARS-CoV-2 genomic data – Nicholas Reich: Biostatistics and Infectious Disease Epidemiology
…
us_dat <- genbank_global %>% 
  filter(country=="USA") %>%
  mutate(date = ymd(date), 
         date_submitted = ymd(date_submitted),
         reporting_lag = as.numeric(date_submitted - date)) %>%
  select(strain, virus, Nextstrain_clade,  ## info on the virus
         region, country, division, location, ## info on location
         host, sampling_strategy, ## info about the sample
         date, date_submitted, reporting_lag) ## dates

us_dat %>%
  group_by(Nextstrain_clade) %>%
  summarize(n_samples = n()) 
#> # A tibble: 25 × 2
#>    Nextstrain_clade n_samples
#>    <chr>                <int>
#>  1 19A                   4445
#>  2 19B                   3966
#>  3 20A                  50509
#>  4 20B                  23174
#>  5 20C                  57723
#>  6 20D                    613
#>  7 20E (EU1)              134
#>  8 20G                  62703
#>  9 20H (Beta, V2)        2188
#> 10 20I (Alpha, V1)     184305
#> # … with 15 more rows
…
